5 Analysis of Historical Data | Understanding Visitors with Social and Geographic Datasets: a tutorial book for local authorities, real estate and retail
…
# load the data with read()
data_monthly <- read.csv("C:/Users/Laurent/OneDrive - ROCS/VI/monthly_visits.csv", header=TRUE, fileEncoding="UTF-8-BOM")

data_monthly <- data_monthly %>%
  mutate(month = as.Date(month)) %>% 
  mutate(year = as.character(year))

as_tibble(data_monthly)

## # A tibble: 54 x 6
##    name                     month         pid  visits year  mm   
##    <chr>                    <date>      <int>   <dbl> <chr> <chr>
##  1 Training Shopping Centre 2017-01-01 100001 1715887 2017  Jan  
##  2 Training Shopping Centre 2017-02-01 100001 1606814 2017  Feb  
##  3 Training Shopping Centre 2017-03-01 100001 1662214 2017  Mar  
##  4 Training Shopping Centre 2017-04-01 100001 1603849 2017  Apr  
##  5 Training Shopping Centre 2017-05-01 100001 1769676 2017  May  
##  6 Training Shopping Centre 2017-06-01 100001 1684730 2017  Jun  
##  7 Training Shopping Centre 2017-07-01 100001 1894138 2017  Jul  
##  8 Training Shopping Centre 2017-08-01 100001 1681012 2017  Aug  
##  9 Training Shopping Centre 2017-09-01 100001 1626082 2017  Sep  
## 10 Training Shopping Centre 2017-10-01 100001 1609592 2017  Oct  
## # ... with 44 more rows
…
data_daily <- read.csv("C:/Users/Laurent/OneDrive - ROCS/VI/daily_visits.csv")

data_daily <- mutate(data_daily,
                     date =as.Date(day, format="%d/%m/%Y"))

data_daily <- mutate (data_daily,
                      wday = wday(date, label = TRUE), 
                      week = week (date), 
                      year = year (date),
                      month = month (date), 
                      hour = hour (date))

as_tibble(data_daily)

## # A tibble: 1,582 x 13
##       PID postcode asset  name   day   visits    mm  year month date       wday 
##     <int> <chr>    <chr>  <chr>  <chr>  <dbl> <int> <dbl> <dbl> <date>     <ord>
##  1 374342 DY5 1QX  Merry~ Merry~ 01/0~ 48250.     3  2017     3 2017-03-01 Wed  
##  2 374342 DY5 1QX  Merry~ Merry~ 02/0~ 53097.     3  2017     3 2017-03-02 Thu  
##  3 374342 DY5 1QX  Merry~ Merry~ 03/0~ 60116.     3  2017     3 2017-03-03 Fri  
##  4 374342 DY5 1QX  Merry~ Merry~ 04/0~ 71824.     3  2017     3 2017-03-04 Sat  
##  5 374342 DY5 1QX  Merry~ Merry~ 05/0~ 55379.     3  2017     3 2017-03-05 Sun  
##  6 374342 DY5 1QX  Merry~ Merry~ 06/0~ 47432.     3  2017     3 2017-03-06 Mon  
##  7 374342 DY5 1QX  Merry~ Merry~ 07/0~ 47754.     3  2017     3 2017-03-07 Tue  
##  8 374342 DY5 1QX  Merry~ Merry~ 08/0~ 48904.     3  2017     3 2017-03-08 Wed  
##  9 374342 DY5 1QX  Merry~ Merry~ 09/0~ 50120.     3  2017     3 2017-03-09 Thu  
## 10 374342 DY5 1QX  Merry~ Merry~ 10/0~ 58124.     3  2017     3 2017-03-10 Fri  
## # ... with 1,572 more rows, and 2 more variables: week <dbl>, hour <int>
…
data_frequency <- read.csv("C:/Users/Laurent/OneDrive - ROCS/VI/visit_frequency.csv", header=TRUE, fileEncoding="UTF-8-BOM")

as_tibble(data_frequency)

## # A tibble: 25 x 5
##       pid name                     frequency      pct  year
##     <int> <chr>                    <chr>        <dbl> <int>
##  1 374342 Training Shopping Centre weekly      0.0347  2017
##  2 374342 Training Shopping Centre half yearly 0.233   2017
##  3 374342 Training Shopping Centre quarterly   0.232   2017
##  4 374342 Training Shopping Centre monthly     0.128   2017
##  5 374342 Training Shopping Centre anually     0.248   2017
##  6 374342 Training Shopping Centre monthly     0.0661  2018
##  7 374342 Training Shopping Centre anually     0.281   2018
##  8 374342 Training Shopping Centre weekly      0.0138  2018
##  9 374342 Training Shopping Centre half yearly 0.192   2018
## 10 374342 Training Shopping Centre quarterly   0.167   2018
## # ... with 15 more rows
…
data_sector <- read.csv("C:/Users/Laurent/OneDrive - ROCS/VI/visit_sectors.csv", header=TRUE, fileEncoding="UTF-8-BOM")

as_tibble(data_sector)

## # A tibble: 37 x 5
##     year    pid name                     sector                 pct
##    <int>  <int> <chr>                    <chr>                <dbl>
##  1  2017 100001 Training Shopping Centre Clothing            0.298 
##  2  2018 100001 Training Shopping Centre Clothing            0.299 
##  3  2019 100001 Training Shopping Centre Clothing            0.296 
##  4  2020 100001 Training Shopping Centre Clothing            0.226 
##  5  2017 100001 Training Shopping Centre Department Stores   0.196 
##  6  2018 100001 Training Shopping Centre Department Stores   0.191 
##  7  2019 100001 Training Shopping Centre Department Stores   0.189 
##  8  2020 100001 Training Shopping Centre Department Stores   0.176 
##  9  2017 100001 Training Shopping Centre Domestic Appliances 0.0475
## 10  2018 100001 Training Shopping Centre Domestic Appliances 0.0499
## # ... with 27 more rows
…
data_dwell <- read.csv("C:/Users/Laurent/OneDrive - ROCS/VI/visit_dwell_time.csv", header=TRUE, fileEncoding="UTF-8-BOM")

data_dwell <- data_dwell %>%
  mutate(month = as.Date(month)) %>% 
  mutate(year = as.character(year))

data_dwell <- data_dwell %>%
  mutate(mm = fct_relevel(mm, 
                          "Jan", "Feb", "Mar","Apr", "May", "Jun", 
                          "Jul", "Aug", "Sep", "Oct", "Nov", "Dec")) 

as_tibble(data_dwell)

## # A tibble: 54 x 6
##       pid name                     month      dwell year  mm   
##     <int> <chr>                    <date>     <dbl> <chr> <fct>
##  1 100001 Training Shopping Centre 2017-01-01  93.6 2017  Jan  
##  2 100001 Training Shopping Centre 2017-02-01  92.4 2017  Feb  
##  3 100001 Training Shopping Centre 2017-03-01  88.1 2017  Mar  
##  4 100001 Training Shopping Centre 2017-04-01  96.8 2017  Apr  
##  5 100001 Training Shopping Centre 2017-05-01  91.9 2017  May  
##  6 100001 Training Shopping Centre 2017-06-01  88.6 2017  Jun  
##  7 100001 Training Shopping Centre 2017-07-01  88.7 2017  Jul  
##  8 100001 Training Shopping Centre 2017-08-01  89.1 2017  Aug  
##  9 100001 Training Shopping Centre 2017-09-01  88   2017  Sep  
## 10 100001 Training Shopping Centre 2017-10-01  91.9 2017  Oct  
## # ... with 44 more rows
…
data_hour <- read.csv("C:/Users/Laurent/OneDrive - ROCS/VI/visit_hour.csv", header=TRUE, fileEncoding="UTF-8-BOM")

data_hour <- data_hour %>%
  mutate(year = as.character(year))

as_tibble(data_hour)

## # A tibble: 120 x 7
##       pid name                   year   hour avg_visits total_visits_ye~     pct
##     <int> <chr>                  <chr> <int>      <dbl>            <dbl>   <dbl>
##  1 374342 intu Merry Hill, West~ 2017      0       340.           59710. 0.00569
##  2 374342 intu Merry Hill, West~ 2017      1       293.           59710. 0.00490
##  3 374342 intu Merry Hill, West~ 2017      2       327.           59710. 0.00547
##  4 374342 intu Merry Hill, West~ 2017      3       280.           59710. 0.00469
##  5 374342 intu Merry Hill, West~ 2017      4       342.           59710. 0.00573
##  6 374342 intu Merry Hill, West~ 2017      5       337.           59710. 0.00564
##  7 374342 intu Merry Hill, West~ 2017      6       739.           59710. 0.0124 
##  8 374342 intu Merry Hill, West~ 2017      7       946.           59710. 0.0159 
##  9 374342 intu Merry Hill, West~ 2017      8      1506.           59710. 0.0252 
## 10 374342 intu Merry Hill, West~ 2017      9      2580.           59710. 0.0432 
## # ... with 110 more rows
…
data_age <- read.csv("C:/Users/Laurent/OneDrive - ROCS/VI/visit_age.csv", header=TRUE, fileEncoding="UTF-8-BOM")

as_tibble(data_age)

## # A tibble: 52 x 13
##    month       mm  year    pid name           up_to_19 age_20_to_29 age_30_to_39
##    <chr>    <int> <int>  <int> <chr>             <dbl>        <dbl>        <dbl>
##  1 01-Mar-~     3  2017 100001 Training Shop~   0.0785        0.155        0.155
##  2 01-Apr-~     4  2017 100001 Training Shop~   0.0787        0.158        0.155
##  3 01-May-~     5  2017 100001 Training Shop~   0.0787        0.155        0.155
##  4 01-Jun-~     6  2017 100001 Training Shop~   0.0784        0.153        0.153
##  5 01-Jul-~     7  2017 100001 Training Shop~   0.0784        0.154        0.154
##  6 01-Aug-~     8  2017 100001 Training Shop~   0.0785        0.155        0.155
##  7 01-Sep-~     9  2017 100001 Training Shop~   0.0771        0.153        0.153
##  8 01-Oct-~    10  2017 100001 Training Shop~   0.0771        0.151        0.152
##  9 01-Nov-~    11  2017 100001 Training Shop~   0.0768        0.152        0.152
## 10 01-Dec-~    12  2017 100001 Training Shop~   0.0778        0.157        0.154
## # ... with 42 more rows, and 5 more variables: age_40_to_49 <dbl>,
## #   age_50_to_59 <dbl>, age_60_to_69 <dbl>, age_70_to_79 <dbl>,
## #   age_80_and_over <dbl>
…
data_stores <- read.csv("C:/Users/Laurent/OneDrive - ROCS/VI/visit_stores_per_trip.csv", header=TRUE, fileEncoding="UTF-8-BOM")

data_stores <- data_stores %>%
  mutate(date = as.Date(date)) %>% 
  mutate(year = as.character(year))

as_tibble(data_stores)

## # A tibble: 198 x 7
##    date          pid name                     venues    pct month year 
##    <date>      <int> <chr>                     <int>  <dbl> <chr> <chr>
##  1 0001-01-20 100001 Training Shopping Centre      1 0.716  Jan   2018 
##  2 0001-01-20 100001 Training Shopping Centre      4 0.143  Jan   2019 
##  3 0001-01-20 100001 Training Shopping Centre      3 0.0714 Jan   2019 
##  4 0001-01-20 100001 Training Shopping Centre      2 0.405  Jan   2019 
##  5 0001-01-20 100001 Training Shopping Centre      1 0.381  Jan   2019 
##  6 0001-01-20 100001 Training Shopping Centre      4 0.0143 Jan   2018 
##  7 0001-01-20 100001 Training Shopping Centre      2 0.214  Jan   2018 
##  8 0001-01-20 100001 Training Shopping Centre      4 0.0367 Jan   2020 
##  9 0001-01-20 100001 Training Shopping Centre      3 0.0642 Jan   2020 
## 10 0001-01-20 100001 Training Shopping Centre      2 0.225  Jan   2020 
## # ... with 188 more rows
…
