2 Time Intelligence | Understanding Visitors with Social and Geographic Datasets: a tutorial book for local authorities, real estate and retail
…
data_hour <- read.csv("C:/Users/Laurent/OneDrive - ROCS/VI/visit_hour.csv", header=TRUE, fileEncoding="UTF-8-BOM")

data_hour <- data_hour %>%
  mutate(year = as.character(year))

as_tibble(data_hour)

## # A tibble: 120 x 7
##       pid name                   year   hour avg_visits total_visits_ye~     pct
##     <int> <chr>                  <chr> <int>      <dbl>            <dbl>   <dbl>
##  1 374342 intu Merry Hill, West~ 2017      0       340.           59710. 0.00569
##  2 374342 intu Merry Hill, West~ 2017      1       293.           59710. 0.00490
##  3 374342 intu Merry Hill, West~ 2017      2       327.           59710. 0.00547
##  4 374342 intu Merry Hill, West~ 2017      3       280.           59710. 0.00469
##  5 374342 intu Merry Hill, West~ 2017      4       342.           59710. 0.00573
##  6 374342 intu Merry Hill, West~ 2017      5       337.           59710. 0.00564
##  7 374342 intu Merry Hill, West~ 2017      6       739.           59710. 0.0124 
##  8 374342 intu Merry Hill, West~ 2017      7       946.           59710. 0.0159 
##  9 374342 intu Merry Hill, West~ 2017      8      1506.           59710. 0.0252 
## 10 374342 intu Merry Hill, West~ 2017      9      2580.           59710. 0.0432 
## # ... with 110 more rows
…
